{
  "湖北省": {
    "20200101": 249.57617454,
    "20200102": 216.163816128,
    "20200103": 371.462458032,
    "20200104": 413.201698416,
    "20200105": 335.262864024,
    "20200106": 348.931866744,
    "20200107": 397.944290232,
    "20200108": 450.71771025600003,
    "20200109": 500.99491180800004,
    "20200110": 409.382489124,
    "20200111": 509.85090684000005,
    "20200112": 412.652810016,
    "20200113": 368.19489276,
    "20200114": 353.66624351999997,
    "20200115": 391.15318608,
    "20200116": 394.68281129999997,
    "20200117": 431.41237891199995,
    "20200118": 539.6138209439999,
    "20200119": 514.7141922,
    "20200120": 587.055944412,
    "20200121": 771.3277176959999,
    "20200122": 885.300786216,
    "20200123": 852.8901671159999,
    "20200124": 282.13298049599996,
    "20200125": 96.680490624,
    "20200126": 50.418832644,
    "20200127": 35.477557415999996,
    "20200128": 27.966551184,
    "20200129": 23.832211392,
    "20200130": 22.435654427999996,
    "20200131": 21.791681424,
    "20200201": 21.866045904,
    "20200202": 43.484619636,
    "20200203": 19.240355087999998,
    "20200204": 21.284621423999997,
    "20200205": 25.695399312000003,
    "20200206": 25.931579112,
    "20200207": 25.290081143999995,
    "20200208": 26.356641192,
    "20200209": 26.8730379
  },
  "河南省": {
    "20200101": 14.27038074,
    "20200102": 17.376285887999998,
    "20200103": 25.136141939999998,
    "20200104": 26.839200960000003,
    "20200105": 25.654342032000002,
    "20200106": 27.150963479999998,
    "20200107": 32.025132,
    "20200108": 36.935648136,
    "20200109": 43.242571223999995,
    "20200110": 34.639547292,
    "20200111": 37.20104496,
    "20200112": 30.647459376,
    "20200113": 30.769338456,
    "20200114": 31.491577548,
    "20200115": 35.629210152000006,
    "20200116": 38.777961384,
    "20200117": 41.040872963999995,
    "20200118": 43.19378784,
    "20200119": 43.398923256,
    "20200120": 51.669562391999996,
    "20200121": 66.353080392,
    "20200122": 67.13461893600001,
    "20200123": 59.257877616,
    "20200124": 19.390315248,
    "20200125": 5.614626132000001,
    "20200126": 2.71033452,
    "20200127": 1.187461296,
    "20200128": 0.700122852,
    "20200129": 0.45005932800000004,
    "20200130": 0.29972689199999997,
    "20200131": 0.32074542,
    "20200201": 0.27061937999999996,
    "20200202": 0.567612036,
    "20200203": 0.290652624,
    "20200204": 0.359450784,
    "20200205": 0.28064361600000004,
    "20200206": 0.31853573999999996,
    "20200207": 0.356274936,
    "20200208": 0.33895584,
    "20200209": 0.38287242000000005
  },
  "湖南省": {
    "20200101": 10.67687082,
    "20200102": 13.182009984,
    "20200103": 20.606111964,
    "20200104": 19.8244098,
    "20200105": 18.362547720000002,
    "20200106": 20.377217952,
    "20200107": 24.082899263999998,
    "20200108": 27.683378424,
    "20200109": 29.398433544,
    "20200110": 25.83063756,
    "20200111": 27.144664919999997,
    "20200112": 21.44700504,
    "20200113": 21.722922468,
    "20200114": 20.848843367999997,
    "20200115": 21.093910488,
    "20200116": 21.790092851999997,
    "20200117": 23.129785547999997,
    "20200118": 28.9244115,
    "20200119": 25.402441428000003,
    "20200120": 27.911532096,
    "20200121": 36.504930959999996,
    "20200122": 38.362639392000006,
    "20200123": 34.195805316,
    "20200124": 12.148149312000001,
    "20200125": 3.060165744,
    "20200126": 1.5733161359999999,
    "20200127": 0.847572012,
    "20200128": 0.540277452,
    "20200129": 0.32707800000000004,
    "20200130": 0.34115256,
    "20200131": 0.33024898799999997,
    "20200201": 0.289445076,
    "20200202": 0.3461049,
    "20200203": 0.280044864,
    "20200204": 0.287093808,
    "20200205": 0.25588094400000005,
    "20200206": 0.26313822,
    "20200207": 0.38075183999999995,
    "20200208": 0.406747008,
    "20200209": 0.35408502000000003
  },
  "广东省": {
    "20200101": 9.01832778,
    "20200102": 13.252502016,
    "20200103": 16.518036132,
    "20200104": 16.835498784,
    "20200105": 18.522222048,
    "20200106": 17.410205448,
    "20200107": 18.89482788,
    "20200108": 21.441767904,
    "20200109": 22.557800808,
    "20200110": 18.743770332,
    "20200111": 16.785837360000002,
    "20200112": 14.111507664000001,
    "20200113": 14.117018580000002,
    "20200114": 11.898031032,
    "20200115": 11.403710712,
    "20200116": 11.70542178,
    "20200117": 11.91924882,
    "20200118": 12.495345768000002,
    "20200119": 13.108548492,
    "20200120": 13.789625975999998,
    "20200121": 18.145098035999997,
    "20200122": 18.470900448000002,
    "20200123": 17.264983140000002,
    "20200124": 11.29154904,
    "20200125": 4.045642848,
    "20200126": 2.485575072,
    "20200127": 1.153042128,
    "20200128": 0.5242929119999999,
    "20200129": 0.332311248,
    "20200130": 0.202254732,
    "20200131": 0.24946866,
    "20200201": 0.157665204,
    "20200202": 0.235351332,
    "20200203": 0.22276296,
    "20200204": 0.203066352,
    "20200205": 0.209107008,
    "20200206": 0.130184172,
    "20200207": 0.17133832799999998,
    "20200208": 0.177951816,
    "20200209": 0.23317794000000003
  },
  "安徽省": {
    "20200101": 6.703278119999999,
    "20200102": 9.093472128,
    "20200103": 12.485204567999999,
    "20200104": 13.053611376000001,
    "20200105": 12.241698479999998,
    "20200106": 12.763751903999998,
    "20200107": 14.923711512,
    "20200108": 17.770232304,
    "20200109": 19.870409376,
    "20200110": 16.690565808000002,
    "20200111": 17.088284879999996,
    "20200112": 13.179029184000001,
    "20200113": 13.367952288,
    "20200114": 13.153327884000001,
    "20200115": 14.948905752,
    "20200116": 14.586756372,
    "20200117": 16.235949744,
    "20200118": 18.588755124000002,
    "20200119": 16.811528292000002,
    "20200120": 18.856898172,
    "20200121": 24.372409788,
    "20200122": 24.864673680000003,
    "20200123": 21.386301696,
    "20200124": 7.670466072,
    "20200125": 2.3469915240000003,
    "20200126": 0.971754084,
    "20200127": 0.628149816,
    "20200128": 0.274934088,
    "20200129": 0.159614064,
    "20200130": 0.124277004,
    "20200131": 0.16156065600000002,
    "20200201": 0.18355053600000001,
    "20200202": 0.193818744,
    "20200203": 0.210033648,
    "20200204": 0.144713952,
    "20200205": 0.159581664,
    "20200206": 0.141263676,
    "20200207": 0.16045970399999998,
    "20200208": 0.144056232,
    "20200209": 0.11227086000000001
  },
  "江西省": {
    "20200101": 6.49596024,
    "20200102": 8.388551807999999,
    "20200103": 11.0488536,
    "20200104": 12.1996368,
    "20200105": 11.390102064,
    "20200106": 12.31590096,
    "20200107": 13.77080676,
    "20200108": 15.640741656,
    "20200109": 18.567431711999998,
    "20200110": 14.703593688000002,
    "20200111": 16.2565542,
    "20200112": 12.308715936,
    "20200113": 12.9646089,
    "20200114": 12.225499776000001,
    "20200115": 13.412654568,
    "20200116": 14.406672959999998,
    "20200117": 15.462809279999998,
    "20200118": 17.277515136,
    "20200119": 16.515289908,
    "20200120": 17.361637524,
    "20200121": 21.902958576,
    "20200122": 23.08862556,
    "20200123": 20.495205792,
    "20200124": 6.735993048,
    "20200125": 1.7634853440000002,
    "20200126": 0.905648364,
    "20200127": 0.456053976,
    "20200128": 0.27173717999999997,
    "20200129": 0.17793043200000003,
    "20200130": 0.17057628,
    "20200131": 0.15443298,
    "20200201": 0.103541328,
    "20200202": 0.18458928,
    "20200203": 0.150630192,
    "20200204": 0.147048048,
    "20200205": 0.1375704,
    "20200206": 0.11633479199999999,
    "20200207": 0.092468304,
    "20200208": 0.12710844000000002,
    "20200209": 0.11802834
  },
  "江苏省": {
    "20200101": 5.45937084,
    "20200102": 8.036091648,
    "20200103": 10.606899455999999,
    "20200104": 11.467658592,
    "20200105": 11.922349824000001,
    "20200106": 12.259919592,
    "20200107": 13.898907287999998,
    "20200108": 15.714172368,
    "20200109": 17.10158184,
    "20200110": 14.637361284,
    "20200111": 13.45891464,
    "20200112": 10.443758976,
    "20200113": 10.256446152,
    "20200114": 9.5511717,
    "20200115": 9.867459528,
    "20200116": 9.904587659999999,
    "20200117": 10.952823239999999,
    "20200118": 11.95542342,
    "20200119": 10.294283843999999,
    "20200120": 10.466824536,
    "20200121": 12.454623503999999,
    "20200122": 12.195530424000001,
    "20200123": 10.58176386,
    "20200124": 4.905983376,
    "20200125": 1.698651324,
    "20200126": 0.819710928,
    "20200127": 0.4302396,
    "20200128": 0.182223756,
    "20200129": 0.18316368,
    "20200130": 0.180323496,
    "20200131": 0.14255352,
    "20200201": 0.108247752,
    "20200202": 0.14305669199999999,
    "20200203": 0.13790088,
    "20200204": 0.10970251199999999,
    "20200205": 0.079790832,
    "20200206": 0.105255288,
    "20200207": 0.089748648,
    "20200208": 0.16947792,
    "20200209": 0.09787716000000002
  },
  "浙江省": {
    "20200101": 4.80286422,
    "20200102": 7.0492032,
    "20200103": 9.060059952,
    "20200104": 8.966733048,
    "20200105": 9.793358784,
    "20200106": 9.740758032,
    "20200107": 10.376142768,
    "20200108": 12.556651751999999,
    "20200109": 12.785468328,
    "20200110": 10.729649448000002,
    "20200111": 10.434439439999998,
    "20200112": 7.957149696,
    "20200113": 7.894006308000001,
    "20200114": 6.8222655,
    "20200115": 6.735870576,
    "20200116": 7.143308675999999,
    "20200117": 7.473691151999999,
    "20200118": 8.793021095999999,
    "20200119": 7.7021979840000006,
    "20200120": 8.223933564,
    "20200121": 9.555702516,
    "20200122": 8.406627768,
    "20200123": 7.351541208,
    "20200124": 3.50427384,
    "20200125": 1.218879576,
    "20200126": 0.819710928,
    "20200127": 0.24523657199999999,
    "20200128": 0.14386086,
    "20200129": 0.07849872000000001,
    "20200130": 0.080414532,
    "20200131": 0.08078032800000001,
    "20200201": 0.03529818,
    "20200202": 0.064606248,
    "20200203": 0.076375872,
    "20200204": 0.060686496,
    "20200205": 0.06053097600000001,
    "20200206": 0.08032640399999999,
    "20200207": 0.05711277599999999,
    "20200208": 0.053668008,
    "20200209": 0.03166614
  },
  "北京市": {
    "20200101": 4.4227814400000005,
    "20200102": 6.696743039999999,
    "20200103": 8.728594344,
    "20200104": 8.600743944,
    "20200105": 11.762675496,
    "20200106": 11.812068647999999,
    "20200107": 12.425751215999998,
    "20200108": 13.437820296,
    "20200109": 12.133979496,
    "20200110": 10.795881851999999,
    "20200111": 8.770978079999999,
    "20200112": 7.521993072,
    "20200113": 8.297349696,
    "20200114": 7.750093607999999,
    "20200115": 7.681255920000001,
    "20200116": 7.683558912,
    "20200117": 6.893835804,
    "20200118": 5.630618772,
    "20200119": 5.036052528000001,
    "20200120": 4.651922016,
    "20200121": 5.0462698679999995,
    "20200122": 4.6177251120000005,
    "20200123": 4.009931568,
    "20200124": 1.5185186640000001,
    "20200125": 0.544605768,
    "20200126": 0.277644024,
    "20200127": 0.11616469200000001,
    "20200128": 0.06713506799999999,
    "20200129": 0.034016112,
    "20200130": 0.017057628000000002,
    "20200131": 0.047517840000000006,
    "20200201": 0.040004604000000006,
    "20200202": 0.050762051999999995,
    "20200203": 0.027580175999999998,
    "20200204": 0.03501144,
    "20200205": 0.06603379200000001,
    "20200206": 0.03877826400000001,
    "20200207": 0.021757248,
    "20200208": 0.03954484800000001,
    "20200209": 0.06045354
  },
  "上海市": {
    "20200101": 3.5935099200000002,
    "20200102": 4.75821216,
    "20200103": 6.5740678919999995,
    "20200104": 6.953792976,
    "20200105": 8.462739384,
    "20200106": 7.445521944,
    "20200107": 8.32653432,
    "20200108": 9.252269712,
    "20200109": 9.039407544000001,
    "20200110": 7.815423672,
    "20200111": 7.33435236,
    "20200112": 5.28404472,
    "20200113": 6.453494208000001,
    "20200114": 5.676124896,
    "20200115": 5.376879144,
    "20200116": 5.522557968,
    "20200117": 5.15426976,
    "20200118": 4.6279058399999995,
    "20200119": 4.147337376,
    "20200120": 3.821221656,
    "20200121": 3.543125652,
    "20200122": 3.3152898240000006,
    "20200123": 3.452996628,
    "20200124": 2.0636279280000003,
    "20200125": 0.635373396,
    "20200126": 0.337139172,
    "20200127": 0.23232938400000003,
    "20200128": 0.156648492,
    "20200129": 0.049715856,
    "20200130": 0.021931236,
    "20200131": 0.03563838,
    "20200201": 0.04706424000000001,
    "20200202": 0.050762051999999995,
    "20200203": 0.014850864,
    "20200204": 0.028009152,
    "20200205": 0.030265488000000004,
    "20200206": 0.060937272,
    "20200207": 0.038075184,
    "20200208": 0.016947792,
    "20200209": 0.03454488
  },
  "重庆市": {
    "20200101": 2.9370032999999998,
    "20200102": 4.05329184,
    "20200103": 5.690159604,
    "20200104": 6.343811136,
    "20200105": 6.067624464,
    "20200106": 6.885708264,
    "20200107": 7.942232735999999,
    "20200108": 9.325700423999999,
    "20200109": 11.889671184,
    "20200110": 9.802395792,
    "20200111": 9.073425599999998,
    "20200112": 8.330141088000001,
    "20200113": 7.663524372,
    "20200114": 7.804671731999999,
    "20200115": 9.099333936,
    "20200116": 8.704031579999999,
    "20200117": 8.504545104,
    "20200118": 9.795734028,
    "20200119": 9.553687884,
    "20200120": 10.549894572,
    "20200121": 13.420930499999999,
    "20200122": 12.313933632000001,
    "20200123": 11.1386988,
    "20200124": 5.022792504,
    "20200125": 1.192945968,
    "20200126": 0.423076608,
    "20200127": 0.23232938400000003,
    "20200128": 0.124679412,
    "20200129": 0.083731968,
    "20200130": 0.056046492,
    "20200131": 0.066524976,
    "20200201": 0.040004604000000006,
    "20200202": 0.106138836,
    "20200203": 0.044552591999999995,
    "20200204": 0.053684208000000004,
    "20200205": 0.055028160000000007,
    "20200206": 0.072016776,
    "20200207": 0.051673463999999995,
    "20200208": 0.05649264000000001,
    "20200209": 0.06908976
  },
  "山东省": {
    "20200101": 2.90245032,
    "20200102": 4.75821216,
    "20200103": 5.911136676,
    "20200104": 7.01479116,
    "20200105": 6.759546552,
    "20200106": 7.893372887999999,
    "20200107": 9.671589864,
    "20200108": 10.647453239999999,
    "20200109": 12.866904432,
    "20200110": 10.332255024,
    "20200111": 8.46853056,
    "20200112": 8.205810624,
    "20200113": 7.490662920000001,
    "20200114": 6.876843624,
    "20200115": 7.09039008,
    "20200116": 7.443447696,
    "20200117": 8.0535465,
    "20200118": 8.715889332,
    "20200119": 8.368734347999998,
    "20200120": 8.556213708,
    "20200121": 10.7367444,
    "20200122": 10.06427268,
    "20200123": 7.685702171999999,
    "20200124": 3.582146592,
    "20200125": 1.10217834,
    "20200126": 0.416466036,
    "20200127": 0.20221261199999999,
    "20200128": 0.105497964,
    "20200129": 0.07064884800000001,
    "20200130": 0.043862472,
    "20200131": 0.040390164000000006,
    "20200201": 0.072949572,
    "20200202": 0.09229464,
    "20200203": 0.040309488,
    "20200204": 0.09336384,
    "20200205": 0.049525344,
    "20200206": 0.09140590800000001,
    "20200207": 0.070711056,
    "20200208": 0.059317272000000004,
    "20200209": 0.05181732
  },
  "四川省": {
    "20200101": 2.86789734,
    "20200102": 4.793458176000001,
    "20200103": 5.469182532,
    "20200104": 6.953792976,
    "20200105": 7.132119984,
    "20200106": 7.613466048,
    "20200107": 9.415388808,
    "20200108": 11.088037512,
    "20200109": 13.436957159999999,
    "20200110": 9.802395792,
    "20200111": 9.678320639999999,
    "20200112": 9.573445728000001,
    "20200113": 8.700693084000001,
    "20200114": 8.295874848,
    "20200115": 8.331208344,
    "20200116": 8.644003776,
    "20200117": 8.246831616,
    "20200118": 9.101548152,
    "20200119": 9.923985864,
    "20200120": 10.051474356,
    "20200121": 12.132521171999999,
    "20200122": 11.485111176,
    "20200123": 9.245120004,
    "20200124": 4.672365119999999,
    "20200125": 1.517116068,
    "20200126": 0.56189862,
    "20200127": 0.24523657199999999,
    "20200128": 0.13107322799999999,
    "20200129": 0.049715856,
    "20200130": 0.0609201,
    "20200131": 0.06414908400000001,
    "20200201": 0.044711028,
    "20200202": 0.041532587999999995,
    "20200203": 0.067889664,
    "20200204": 0.063020592,
    "20200205": 0.027514080000000003,
    "20200206": 0.024928884,
    "20200207": 0.051673463999999995,
    "20200208": 0.033895584,
    "20200209": 0.04030236000000001
  },
  "河北省": {
    "20200101": 2.34960264,
    "20200102": 3.454109568,
    "20200103": 4.253808636,
    "20200104": 5.123847456,
    "20200105": 5.3757023760000004,
    "20200106": 5.822062272,
    "20200107": 7.173629568,
    "20200108": 8.885116152,
    "20200109": 10.342385208,
    "20200110": 8.2790505,
    "20200111": 7.485576119999999,
    "20200112": 6.465184128000001,
    "20200113": 6.511114692,
    "20200114": 5.512390524,
    "20200115": 6.854043744,
    "20200116": 6.422975028,
    "20200117": 7.215977664,
    "20200118": 7.481781108,
    "20200119": 7.4059596,
    "20200120": 7.808583383999999,
    "20200121": 8.804130407999999,
    "20200122": 8.406627768,
    "20200123": 6.237671328000001,
    "20200124": 2.297246184,
    "20200125": 0.6872406120000001,
    "20200126": 0.277644024,
    "20200127": 0.12907188,
    "20200128": 0.076725792,
    "20200129": 0.036632736000000006,
    "20200130": 0.043862472,
    "20200131": 0.038014272,
    "20200201": 0.051770664,
    "20200202": 0.050762051999999995,
    "20200203": 0.0530388,
    "20200204": 0.053684208000000004,
    "20200205": 0.038519712000000005,
    "20200206": 0.047087892000000006,
    "20200207": 0.059832432,
    "20200208": 0.050843376,
    "20200209": 0.046059840000000005
  },
  "陕西省": {
    "20200101": 2.31504966,
    "20200102": 3.489355584,
    "20200103": 3.9775872959999994,
    "20200104": 4.513865616,
    "20200105": 4.843454616,
    "20200106": 5.318229959999999,
    "20200107": 5.956674552,
    "20200108": 6.682194792,
    "20200109": 7.084941048,
    "20200110": 5.563521936,
    "20200111": 5.82211476,
    "20200112": 4.911053328,
    "20200113": 4.840120656,
    "20200114": 4.475406167999999,
    "20200115": 4.4314938,
    "20200116": 4.8022243200000005,
    "20200117": 4.6388427839999995,
    "20200118": 5.39922348,
    "20200119": 6.146946467999999,
    "20200120": 6.064112627999999,
    "20200121": 7.623088523999999,
    "20200122": 6.748982856,
    "20200123": 6.014897352,
    "20200124": 2.8423554479999997,
    "20200125": 0.8428422600000001,
    "20200126": 0.317307456,
    "20200127": 0.146281464,
    "20200128": 0.099104148,
    "20200129": 0.034016112,
    "20200130": 0.053609687999999996,
    "20200131": 0.03563838,
    "20200201": 0.03529818,
    "20200202": 0.08306517599999999,
    "20200203": 0.067889664,
    "20200204": 0.025675055999999998,
    "20200205": 0.04127112,
    "20200206": 0.033238512,
    "20200207": 0.038075184,
    "20200208": 0.016947792,
    "20200209": 0.0431811
  },
  "贵州省": {
    "20200101": 2.2113907200000003,
    "20200102": 3.489355584,
    "20200103": 4.916739852,
    "20200104": 5.733829296,
    "20200105": 5.428927152,
    "20200106": 6.549820056,
    "20200107": 7.429830623999999,
    "20200108": 9.54599256,
    "20200109": 10.098076896,
    "20200110": 6.755705208,
    "20200111": 5.7465028799999995,
    "20200112": 5.4083751840000005,
    "20200113": 5.646807432,
    "20200114": 4.3662499200000005,
    "20200115": 3.4861084559999997,
    "20200116": 3.541640436,
    "20200117": 3.285846972,
    "20200118": 3.4709293800000003,
    "20200119": 3.4808010119999997,
    "20200120": 3.73815162,
    "20200121": 4.079962871999999,
    "20200122": 3.55209624,
    "20200123": 3.2302226519999997,
    "20200124": 1.440645912,
    "20200125": 0.51867216,
    "20200126": 0.19170658799999998,
    "20200127": 0.103257504,
    "20200128": 0.031969080000000004,
    "20200129": 0.015699744,
    "20200130": 0.02436804,
    "20200131": 0.011879460000000001,
    "20200201": 0.014119272,
    "20200202": 0.032303124,
    "20200203": 0.012729312,
    "20200204": 0.021006864,
    "20200205": 0.030265488000000004,
    "20200206": 0.019389132000000003,
    "20200207": 0.013598279999999999,
    "20200208": 0.028246320000000005,
    "20200209": 0.03166614
  },
  "福建省": {
    "20200101": 2.10773178,
    "20200102": 3.630339648,
    "20200103": 4.640518512,
    "20200104": 5.123847456,
    "20200105": 4.470881184,
    "20200106": 5.094304488,
    "20200107": 5.764523759999999,
    "20200108": 7.416501912,
    "20200109": 8.306482608,
    "20200110": 6.490775592,
    "20200111": 6.578233559999999,
    "20200112": 5.781366576000001,
    "20200113": 5.8772893680000005,
    "20200114": 5.512390524,
    "20200115": 5.9086584,
    "20200116": 6.422975028,
    "20200117": 6.700550688,
    "20200118": 7.096122288,
    "20200119": 7.480019196,
    "20200120": 7.47630324,
    "20200121": 9.018865296,
    "20200122": 8.761837392,
    "20200123": 8.019863136,
    "20200124": 3.387464712,
    "20200125": 0.8817426720000001,
    "20200126": 0.39663432,
    "20200127": 0.19360782,
    "20200128": 0.073528884,
    "20200129": 0.031399488,
    "20200130": 0.034115256000000004,
    "20200131": 0.028510703999999998,
    "20200201": 0.021178908,
    "20200202": 0.04614732,
    "20200203": 0.033944832,
    "20200204": 0.028009152,
    "20200205": 0.033016896000000004,
    "20200206": 0.027698760000000003,
    "20200207": 0.035355528,
    "20200208": 0.016947792,
    "20200209": 0.02590866
  },
  "云南省": {
    "20200101": 1.86586092,
    "20200102": 2.81968128,
    "20200103": 3.646121688,
    "20200104": 3.9038837760000002,
    "20200105": 3.832183872,
    "20200106": 4.75841628,
    "20200107": 5.059970856,
    "20200108": 6.388471944,
    "20200109": 6.1077078,
    "20200110": 4.901197896,
    "20200111": 4.9147722,
    "20200112": 4.289401008,
    "20200113": 4.60963872,
    "20200114": 3.54757806,
    "20200115": 3.24976212,
    "20200116": 3.4816126319999996,
    "20200117": 3.479132088,
    "20200118": 3.4709293800000003,
    "20200119": 3.628920204,
    "20200120": 4.070431763999999,
    "20200121": 4.938902424,
    "20200122": 4.6177251120000005,
    "20200123": 3.675770604,
    "20200124": 1.6742641679999999,
    "20200125": 0.700207416,
    "20200126": 0.350360316,
    "20200127": 0.12907188,
    "20200128": 0.06393816000000001,
    "20200129": 0.041865984,
    "20200130": 0.017057628000000002,
    "20200131": 0.011879460000000001,
    "20200201": 0.011766060000000002,
    "20200202": 0.032303124,
    "20200203": 0.02121552,
    "20200204": 0.021006864,
    "20200205": 0.019259856000000002,
    "20200206": 0.011079504,
    "20200207": 0.010878624,
    "20200208": 0.014123160000000003,
    "20200209": 0.00863622
  },
  "广西壮族自治区": {
    "20200101": 1.7967549600000001,
    "20200102": 3.277879488,
    "20200103": 4.253808636,
    "20200104": 5.123847456,
    "20200105": 4.737005064,
    "20200106": 4.926360384,
    "20200107": 6.4050264,
    "20200108": 8.591393303999999,
    "20200109": 10.260949104,
    "20200110": 7.749191268,
    "20200111": 7.40996424,
    "20200112": 7.45982784,
    "20200113": 6.91445808,
    "20200114": 5.512390524,
    "20200115": 5.0814462240000005,
    "20200116": 4.862252124,
    "20200117": 5.025413016,
    "20200118": 4.6279058399999995,
    "20200119": 5.628529296,
    "20200120": 5.981042592,
    "20200121": 6.656781528,
    "20200122": 6.512176440000001,
    "20200123": 5.792123376,
    "20200124": 2.569800816,
    "20200125": 0.9206430840000001,
    "20200126": 0.277644024,
    "20200127": 0.163491048,
    "20200128": 0.047953619999999995,
    "20200129": 0.010466496,
    "20200130": 0.007310412,
    "20200131": 0.019007136,
    "20200201": 0.014119272,
    "20200202": 0.032303124,
    "20200203": 0.033944832,
    "20200204": 0.01167048,
    "20200205": 0.030265488000000004,
    "20200206": 0.024928884,
    "20200207": 0.038075184,
    "20200208": 0.016947792,
    "20200209": 0.02590866
  },
  "海南省": {
    "20200101": 1.5548841,
    "20200102": 2.361483072,
    "20200103": 2.320259256,
    "20200104": 2.866914648,
    "20200105": 2.767688352,
    "20200106": 3.4148634479999997,
    "20200107": 4.227317424,
    "20200108": 3.965258448,
    "20200109": 4.316113512,
    "20200110": 3.0466905840000003,
    "20200111": 2.7220276799999996,
    "20200112": 2.859600672,
    "20200113": 2.30481936,
    "20200114": 2.128546836,
    "20200115": 2.245290192,
    "20200116": 2.5211677679999998,
    "20200117": 2.448278136,
    "20200118": 2.468216448,
    "20200119": 2.888324244,
    "20200120": 3.073591332,
    "20200121": 3.8652279839999997,
    "20200122": 3.9073058640000005,
    "20200123": 3.564383616,
    "20200124": 1.9468188,
    "20200125": 0.8817426720000001,
    "20200126": 0.3305286,
    "20200127": 0.12907188,
    "20200128": 0.070331976,
    "20200129": 0.015699744,
    "20200130": 0.004873608,
    "20200201": 0.009412848,
    "20200202": 0.013844195999999998,
    "20200204": 0.004668192,
    "20200205": 0.008254224000000001,
    "20200206": 0.002769876,
    "20200207": 0.008158967999999999,
    "20200208": 0.005649264,
    "20200209": 0.005757480000000001,
    "20200131": 0.0,
    "20200203": 0.0
  },
  "山西省": {
    "20200101": 1.41667218,
    "20200102": 2.326237056,
    "20200103": 2.5964805959999997,
    "20200104": 3.598892856,
    "20200105": 2.714463576,
    "20200106": 3.582807552,
    "20200107": 4.611619008,
    "20200108": 6.094749095999999,
    "20200109": 7.32924936,
    "20200110": 5.497289532,
    "20200111": 5.06599596,
    "20200112": 4.786722864000001,
    "20200113": 4.60963872,
    "20200114": 3.7658905559999996,
    "20200115": 3.8406279600000004,
    "20200116": 3.061418004,
    "20200117": 3.6724172039999994,
    "20200118": 4.087983492,
    "20200119": 4.221396972,
    "20200120": 4.568851980000001,
    "20200121": 5.583107087999999,
    "20200122": 5.683353984,
    "20200123": 5.235188436,
    "20200124": 2.0636279280000003,
    "20200125": 0.505705356,
    "20200126": 0.26442288,
    "20200127": 0.098955108,
    "20200128": 0.031969080000000004,
    "20200129": 0.036632736000000006,
    "20200130": 0.007310412,
    "20200131": 0.014255351999999999,
    "20200201": 0.014119272,
    "20200202": 0.059991516,
    "20200203": 0.040309488,
    "20200204": 0.021006864,
    "20200205": 0.024762672,
    "20200206": 0.013849380000000001,
    "20200207": 0.010878624,
    "20200208": 0.005649264,
    "20200209": 0.00863622
  },
  "辽宁省": {
    "20200101": 1.14024834,
    "20200102": 1.515578688,
    "20200103": 1.767816576,
    "20200104": 2.317930992,
    "20200105": 2.288665368,
    "20200106": 2.6871056639999997,
    "20200107": 3.2025132,
    "20200108": 3.157520616,
    "20200109": 3.501752472,
    "20200110": 2.847993372,
    "20200111": 2.7220276799999996,
    "20200112": 2.300113584,
    "20200113": 2.420060328,
    "20200114": 2.2377030839999996,
    "20200115": 2.127117024,
    "20200116": 2.5211677679999998,
    "20200117": 2.512706508,
    "20200118": 2.622479976,
    "20200119": 2.814264648,
    "20200120": 2.824381224,
    "20200121": 3.1136558759999997,
    "20200122": 2.486467368,
    "20200123": 1.8935787960000001,
    "20200124": 0.739791144,
    "20200125": 0.298236492,
    "20200126": 0.152043156,
    "20200127": 0.073140732,
    "20200128": 0.047953619999999995,
    "20200129": 0.020932992,
    "20200130": 0.021931236,
    "20200131": 0.004751784,
    "20200201": 0.002353212,
    "20200202": 0.036917856,
    "20200203": 0.008486208,
    "20200204": 0.021006864,
    "20200205": 0.024762672,
    "20200206": 0.022159008,
    "20200207": 0.019037592,
    "20200208": 0.011298528,
    "20200209": 0.028787400000000005
  },
  "黑龙江省": {
    "20200101": 0.76016556,
    "20200102": 1.127872512,
    "20200103": 1.436350968,
    "20200104": 1.585952784,
    "20200105": 1.4902937280000002,
    "20200106": 1.67944104,
    "20200107": 2.177708976,
    "20200108": 2.496644208,
    "20200109": 2.8502636399999997,
    "20200110": 2.053204524,
    "20200111": 2.1927445199999998,
    "20200112": 2.237948352,
    "20200113": 1.9590964560000002,
    "20200114": 1.801078092,
    "20200115": 1.9498572720000003,
    "20200116": 2.040945336,
    "20200117": 2.126136276,
    "20200118": 2.159689392,
    "20200119": 2.369907072,
    "20200120": 2.242890972,
    "20200121": 2.469451212,
    "20200122": 2.3680641600000003,
    "20200123": 2.004965784,
    "20200124": 0.934473024,
    "20200125": 0.337136904,
    "20200126": 0.085937436,
    "20200127": 0.055931148,
    "20200128": 0.038362896,
    "20200129": 0.007849872,
    "20200130": 0.007310412,
    "20200131": 0.009503568,
    "20200201": 0.011766060000000002,
    "20200202": 0.018458928,
    "20200203": 0.025458624,
    "20200204": 0.002334096,
    "20200205": 0.019259856000000002,
    "20200206": 0.013849380000000001,
    "20200207": 0.010878624,
    "20200208": 0.008473896,
    "20200209": 0.01727244
  },
  "甘肃省": {
    "20200101": 0.72561258,
    "20200102": 1.621316736,
    "20200103": 1.712572308,
    "20200104": 2.378929176,
    "20200105": 2.341890144,
    "20200106": 2.967012504,
    "20200107": 3.52276452,
    "20200108": 4.185550584,
    "20200109": 4.723294032,
    "20200110": 3.444085008,
    "20200111": 3.0244752,
    "20200112": 3.046096368,
    "20200113": 2.9962651680000003,
    "20200114": 2.619749952,
    "20200115": 2.422549944,
    "20200116": 2.10097314,
    "20200117": 2.126136276,
    "20200118": 2.159689392,
    "20200119": 2.295847476,
    "20200120": 2.409031044,
    "20200121": 3.006288432,
    "20200122": 3.1968866160000005,
    "20200123": 2.450513736,
    "20200124": 1.284900408,
    "20200125": 0.376037316,
    "20200126": 0.152043156,
    "20200127": 0.077443128,
    "20200128": 0.044756712000000004,
    "20200129": 0.007849872,
    "20200130": 0.007310412,
    "20200131": 0.004751784,
    "20200201": 0.014119272,
    "20200202": 0.032303124,
    "20200203": 0.031823279999999995,
    "20200204": 0.014004576,
    "20200205": 0.030265488000000004,
    "20200206": 0.002769876,
    "20200207": 0.008158967999999999,
    "20200208": 0.011298528,
    "20200209": 0.00863622
  },
  "天津市": {
    "20200101": 0.6910596,
    "20200102": 0.8811504,
    "20200103": 1.270618164,
    "20200104": 1.646950968,
    "20200105": 1.703192832,
    "20200106": 1.735422408,
    "20200107": 1.729357128,
    "20200108": 2.20292136,
    "20200109": 2.198774808,
    "20200110": 1.920739716,
    "20200111": 1.6634613599999999,
    "20200112": 1.367635104,
    "20200113": 1.267650648,
    "20200114": 0.927828108,
    "20200115": 1.299904848,
    "20200116": 1.2005560800000001,
    "20200117": 0.9664255799999999,
    "20200118": 1.079844696,
    "20200119": 1.036834344,
    "20200120": 0.913770396,
    "20200121": 0.9663069959999999,
    "20200122": 0.8288224560000002,
    "20200123": 0.668321928,
    "20200124": 0.35042738399999995,
    "20200125": 0.103734432,
    "20200126": 0.03305286,
    "20200127": 0.025814376,
    "20200128": 0.022378356000000002,
    "20200129": 0.002616624,
    "20200130": 0.01218402,
    "20200131": 0.019007136,
    "20200201": 0.004706424,
    "20200202": 0.013844195999999998,
    "20200203": 0.006364656,
    "20200204": 0.018672768,
    "20200205": 0.008254224000000001,
    "20200206": 0.011079504,
    "20200207": 0.008158967999999999,
    "20200208": 0.014123160000000003,
    "20200209": 0.00863622
  },
  "新疆维吾尔自治区": {
    "20200101": 0.62195364,
    "20200102": 1.1983645440000001,
    "20200103": 1.6020837719999999,
    "20200104": 1.7689473359999999,
    "20200105": 1.703192832,
    "20200106": 2.407198824,
    "20200107": 2.6260608239999996,
    "20200108": 3.377812752,
    "20200109": 3.2574441600000004,
    "20200110": 2.384366544,
    "20200111": 2.4195801599999998,
    "20200112": 2.300113584,
    "20200113": 2.189578392,
    "20200114": 2.073968712,
    "20200115": 1.4771646,
    "20200116": 1.440667296,
    "20200117": 0.9664255799999999,
    "20200118": 1.465503516,
    "20200119": 0.888715152,
    "20200120": 1.079910468,
    "20200121": 1.1810418839999999,
    "20200122": 1.065628872,
    "20200123": 1.002482892,
    "20200124": 0.506172888,
    "20200125": 0.168568452,
    "20200126": 0.059495148,
    "20200127": 0.038721564,
    "20200128": 0.015984540000000002,
    "20200129": 0.010466496,
    "20200130": 0.002436804,
    "20200131": 0.004751784,
    "20200201": 0.002353212,
    "20200202": 0.013844195999999998,
    "20200203": 0.008486208,
    "20200204": 0.014004576,
    "20200205": 0.005502816000000001,
    "20200206": 0.019389132000000003,
    "20200207": 0.010878624,
    "20200208": 0.005649264,
    "20200209": 0.0028787400000000003
  },
  "吉林省": {
    "20200101": 0.44918874000000003,
    "20200102": 0.634428288,
    "20200103": 0.883908288,
    "20200104": 1.097967312,
    "20200105": 1.011270744,
    "20200106": 1.11962736,
    "20200107": 1.28100528,
    "20200108": 1.8357678,
    "20200109": 1.873030392,
    "20200110": 1.258415676,
    "20200111": 1.2097900799999999,
    "20200112": 1.24330464,
    "20200113": 1.3252711320000001,
    "20200114": 1.200718728,
    "20200115": 1.122645096,
    "20200116": 1.080500472,
    "20200117": 1.417424184,
    "20200118": 1.311239988,
    "20200119": 1.407132324,
    "20200120": 1.329120576,
    "20200121": 1.6105116599999998,
    "20200122": 1.420838496,
    "20200123": 1.225256868,
    "20200124": 0.7008547679999999,
    "20200125": 0.207468864,
    "20200126": 0.105769152,
    "20200127": 0.038721564,
    "20200128": 0.022378356000000002,
    "20200129": 0.010466496,
    "20200130": 0.004873608,
    "20200131": 0.023758920000000003,
    "20200201": 0.009412848,
    "20200202": 0.018458928,
    "20200203": 0.012729312,
    "20200204": 0.018672768,
    "20200205": 0.013757040000000002,
    "20200206": 0.019389132000000003,
    "20200207": 0.021757248,
    "20200208": 0.002824632,
    "20200209": 0.00863622
  },
  "内蒙古自治区": {
    "20200101": 0.41463575999999996,
    "20200102": 0.7401663359999999,
    "20200103": 0.939152556,
    "20200104": 1.341960048,
    "20200105": 1.0644955200000001,
    "20200106": 1.455515568,
    "20200107": 1.793407392,
    "20200108": 2.20292136,
    "20200109": 2.687391432,
    "20200110": 2.053204524,
    "20200111": 1.73907324,
    "20200112": 1.86495696,
    "20200113": 1.6133735520000003,
    "20200114": 1.200718728,
    "20200115": 1.063558512,
    "20200116": 1.2605838839999999,
    "20200117": 1.1597106959999999,
    "20200118": 0.925581168,
    "20200119": 1.036834344,
    "20200120": 1.162980504,
    "20200121": 1.503144216,
    "20200122": 1.420838496,
    "20200123": 1.002482892,
    "20200124": 0.5840456399999999,
    "20200125": 0.22043566800000003,
    "20200126": 0.105769152,
    "20200127": 0.06023354400000001,
    "20200128": 0.035165988,
    "20200129": 0.007849872,
    "20200130": 0.02436804,
    "20200131": 0.019007136,
    "20200201": 0.014119272,
    "20200202": 0.02307366,
    "20200203": 0.014850864,
    "20200204": 0.042013728,
    "20200205": 0.011005632000000001,
    "20200206": 0.011079504,
    "20200207": 0.021757248,
    "20200208": 0.002824632,
    "20200209": 0.011514960000000001
  },
  "宁夏回族自治区": {
    "20200101": 0.20731787999999998,
    "20200102": 0.49344422400000004,
    "20200103": 0.441954144,
    "20200104": 0.792976392,
    "20200105": 0.7451468640000001,
    "20200106": 0.727757784,
    "20200107": 0.832653432,
    "20200108": 1.248322104,
    "20200109": 1.791594288,
    "20200110": 1.125950868,
    "20200111": 1.05856632,
    "20200112": 0.994643712,
    "20200113": 0.86430726,
    "20200114": 0.600359364,
    "20200115": 0.47269267200000004,
    "20200116": 0.540250236,
    "20200117": 0.32214186,
    "20200118": 0.539922348,
    "20200119": 0.592476768,
    "20200120": 0.49842021599999997,
    "20200121": 0.53683722,
    "20200122": 0.47361283200000004,
    "20200123": 0.222773976,
    "20200124": 0.19468188,
    "20200125": 0.077800824,
    "20200126": 0.019831716,
    "20200127": 0.017209584,
    "20200128": 0.006393816,
    "20200129": 0.002616624,
    "20200130": 0.002436804,
    "20200131": 0.004751784,
    "20200201": 0.002353212,
    "20200203": 0.008486208,
    "20200206": 0.005539752,
    "20200207": 0.008158967999999999,
    "20200202": 0.0,
    "20200204": 0.0,
    "20200205": 0.0,
    "20200208": 0.0,
    "20200209": 0.0
  },
  "青海省": {
    "20200101": 0.1727649,
    "20200102": 0.387706176,
    "20200103": 0.386709876,
    "20200104": 0.6099818400000001,
    "20200105": 0.5322477600000001,
    "20200106": 0.783739152,
    "20200107": 0.896703696,
    "20200108": 1.174891392,
    "20200109": 0.895797144,
    "20200110": 0.861021252,
    "20200111": 0.52928316,
    "20200112": 0.8081480160000001,
    "20200113": 0.57620484,
    "20200114": 0.5457812400000001,
    "20200115": 0.41360608800000004,
    "20200116": 0.360166824,
    "20200117": 0.257713488,
    "20200118": 0.308527056,
    "20200119": 0.222178788,
    "20200120": 0.24921010799999999,
    "20200121": 0.21473488799999998,
    "20200122": 0.355209624,
    "20200123": 0.222773976,
    "20200124": 0.155745504,
    "20200125": 0.06483402,
    "20200126": 0.039663432,
    "20200127": 0.008604792,
    "20200128": 0.003196908,
    "20200129": 0.002616624,
    "20200130": 0.002436804,
    "20200201": 0.002353212,
    "20200202": 0.009229464,
    "20200204": 0.002334096,
    "20200207": 0.002719656,
    "20200208": 0.002824632,
    "20200209": 0.0028787400000000003,
    "20200131": 0.0,
    "20200203": 0.0,
    "20200205": 0.0,
    "20200206": 0.0
  },
  "西藏自治区": {
    "20200101": 0.034552980000000004,
    "20200102": 0.105738048,
    "20200103": 0.16573280399999998,
    "20200104": 0.182994552,
    "20200105": 0.159674328,
    "20200106": 0.27990684,
    "20200107": 0.256201056,
    "20200108": 0.293722848,
    "20200109": 0.40718052000000005,
    "20200110": 0.26492961600000003,
    "20200111": 0.15122375999999998,
    "20200112": 0.31082616,
    "20200113": 0.23048193600000003,
    "20200114": 0.163734372,
    "20200115": 0.11817316800000001,
    "20200116": 0.120055608,
    "20200117": 0.064428372,
    "20200118": 0.077131764,
    "20200119": 0.074059596,
    "20200120": 0.083070036,
    "20200123": 0.111386988,
    "20200125": 0.012966804,
    "20200128": 0.003196908,
    "20200130": 0.007310412,
    "20200207": 0.002719656,
    "20200121": 0.0,
    "20200122": 0.0,
    "20200124": 0.0,
    "20200126": 0.0,
    "20200127": 0.0,
    "20200129": 0.0,
    "20200131": 0.0,
    "20200201": 0.0,
    "20200202": 0.0,
    "20200203": 0.0,
    "20200204": 0.0,
    "20200205": 0.0,
    "20200206": 0.0,
    "20200208": 0.0,
    "20200209": 0.0
  }
}